### FTDCN Simulation Result (Iteration = 1000)
## Hop	= Average Hop
## Susp	= Average Suspect
## Failed	= Average Failed Trails Before a Success
## D	= [0, B)
### k	n	B	m	Hop	Susp	Failed	2	4	6	g/s	r
### Range Mode
## algo = 0, start = 0.000000, end = 1.000000,
## inc = 0.000100
8	128	1280000	1024000	20.55	3.76	0.00	175	623	2951	50	1
8	128	1280000	1024000	218.89	70.92	0.00	40104	22827	7895	50	128
8	128	1280000	1024000	284.52	103.40	0.00	70532	24056	7872	50	256
8	128	1280000	1024000	313.00	118.23	0.00	84659	24095	7884	50	384
8	128	1280000	1024000	325.29	125.62	0.00	90777	24101	7888	50	512
8	128	1280000	1024000	331.23	129.98	0.00	93791	24107	7870	50	640
8	128	1280000	1024000	333.73	132.60	0.00	94981	24097	7896	50	768
8	128	1280000	1024000	334.90	134.15	0.00	95587	24109	7882	50	896
8	128	1280000	1024000	335.60	136.59	0.00	95880	24111	7900	50	1024
8	128	1280000	1024000	335.80	138.91	0.00	96016	24116	7884	50	1152
8	128	1280000	1024000	335.91	139.28	0.00	96075	24106	7889	50	1280
8	128	1280000	1024000	336.04	142.27	0.00	96110	24122	7888	50	1408
8	128	1280000	1024000	336.09	145.50	0.00	96149	24121	7885	50	1536
8	128	1280000	1024000	336.12	145.00	0.00	96149	24109	7897	50	1664
8	128	1280000	1024000	336.08	147.08	0.00	96167	24124	7875	50	1792
8	128	1280000	1024000	336.16	147.43	0.00	96153	24138	7884	50	1920
8	128	1280000	1024000	336.13	151.22	0.00	96223	24124	7865	50	2048
8	128	1280000	1024000	336.26	149.32	0.00	96165	24121	7907	50	2176
8	128	1280000	1024000	336.28	153.72	0.00	96204	24149	7879	50	2304
8	128	1280000	1024000	336.37	155.71	0.00	96214	24130	7904	50	2432
8	128	1280000	1024000	336.34	156.57	0.00	96222	24136	7892	50	2560
8	128	1280000	1024000	336.39	157.73	0.00	96210	24146	7897	50	2688
8	128	1280000	1024000	336.41	161.05	0.00	96239	24159	7882	50	2816
8	128	1280000	1024000	336.52	163.37	0.00	96260	24156	7896	50	2944
8	128	1280000	1024000	336.49	163.53	0.00	96249	24164	7890	50	3071
8	128	1280000	1024000	336.52	165.77	0.00	96265	24159	7892	50	3199
8	128	1280000	1024000	336.63	165.70	0.00	96252	24156	7917	50	3327
8	128	1280000	1024000	336.56	169.07	0.00	96302	24161	7886	50	3455
8	128	1280000	1024000	336.61	168.77	0.00	96274	24162	7902	50	3583
8	128	1280000	1024000	336.67	171.78	0.00	96317	24137	7914	50	3711
8	128	1280000	1024000	336.75	173.93	0.00	96297	24170	7912	50	3839
8	128	1280000	1024000	336.81	178.05	0.00	96344	24169	7908	50	3967
8	128	1280000	1024000	336.70	175.67	0.00	96334	24181	7885	50	4095
8	128	1280000	1024000	336.84	179.97	0.00	96342	24201	7892	50	4223
8	128	1280000	1024000	336.82	179.16	0.00	96357	24170	7905	50	4351
8	128	1280000	1024000	336.90	180.97	0.00	96355	24186	7907	50	4479
8	128	1280000	1024000	336.91	181.95	0.00	96369	24188	7903	50	4607
8	128	1280000	1024000	336.85	182.46	0.00	96382	24178	7896	50	4735
8	128	1280000	1024000	336.88	184.84	0.00	96380	24204	7884	50	4863
8	128	1280000	1024000	336.93	187.35	0.00	96402	24183	7899	50	4991
8	128	1280000	1024000	337.08	192.29	0.00	96425	24205	7901	50	5119
8	128	1280000	1024000	337.06	189.08	0.00	96405	24181	7921	50	5247
8	128	1280000	1024000	337.19	193.38	0.00	96422	24198	7926	50	5375
8	128	1280000	1024000	336.99	191.87	0.00	96431	24190	7894	50	5503
8	128	1280000	1024000	337.24	197.56	0.00	96440	24225	7910	50	5631
8	128	1280000	1024000	337.17	196.31	0.00	96465	24185	7916	50	5759
8	128	1280000	1024000	337.28	200.94	0.00	96468	24204	7922	50	5887
8	128	1280000	1024000	337.20	198.21	0.00	96466	24203	7910	50	6015
8	128	1280000	1024000	337.37	204.38	0.00	96480	24225	7919	50	6143
8	128	1280000	1024000	337.37	205.22	0.00	96495	24214	7921	50	6272
8	128	1280000	1024000	337.33	204.22	0.00	96497	24211	7916	50	6400
8	128	1280000	1024000	337.42	207.20	0.00	96509	24239	7908	50	6528
8	128	1280000	1024000	337.47	207.17	0.00	96483	24239	7925	50	6656
8	128	1280000	1024000	337.51	212.10	0.00	96533	24250	7908	50	6784
8	128	1280000	1024000	337.56	212.64	0.00	96532	24225	7932	50	6912
8	128	1280000	1024000	337.57	215.88	0.00	96563	24234	7918	50	7040
8	128	1280000	1024000	337.50	213.95	0.00	96553	24249	7900	50	7168
8	128	1280000	1024000	337.62	218.24	0.00	96603	24221	7921	50	7296
8	128	1280000	1024000	337.62	220.76	0.00	96597	24235	7914	50	7424
8	128	1280000	1024000	337.59	219.11	0.00	96590	24248	7903	50	7552
8	128	1280000	1024000	337.74	222.22	0.00	96597	24244	7929	50	7680
8	128	1280000	1024000	337.72	222.47	0.00	96618	24215	7938	50	7808
8	128	1280000	1024000	337.79	227.19	0.00	96631	24254	7919	50	7936
8	128	1280000	1024000	337.86	229.57	0.00	96637	24254	7929	50	8064
8	128	1280000	1024000	337.85	226.90	0.00	96615	24249	7938	50	8192
8	128	1280000	1024000	337.87	231.03	0.00	96650	24266	7918	50	8320
8	128	1280000	1024000	337.88	229.60	0.00	96634	24265	7925	50	8448
8	128	1280000	1024000	337.97	234.01	0.00	96657	24287	7918	50	8576
8	128	1280000	1024000	337.98	235.07	0.00	96667	24272	7927	50	8704
8	128	1280000	1024000	338.08	236.89	0.00	96675	24247	7957	50	8832
8	128	1280000	1024000	338.06	239.68	0.00	96687	24310	7908	50	8960
8	128	1280000	1024000	338.02	240.16	0.00	96719	24273	7915	50	9088
8	128	1280000	1024000	338.12	240.32	0.00	96710	24252	7949	50	9216
8	128	1280000	1024000	338.13	243.82	0.00	96755	24252	7935	50	9344
8	128	1280000	1024000	338.14	243.68	0.00	96732	24287	7922	50	9472
8	128	1280000	1024000	338.12	245.94	0.00	96749	24287	7913	50	9600
8	128	1280000	1024000	338.23	248.49	0.00	96768	24269	7937	50	9728
8	128	1280000	1024000	338.28	250.07	0.00	96770	24279	7937	50	9856
8	128	1280000	1024000	338.30	252.65	0.00	96778	24288	7932	50	9984
8	128	1280000	1024000	338.27	253.37	0.00	96811	24272	7926	50	10112
8	128	1280000	1024000	338.40	255.07	0.00	96792	24294	7940	50	10240
8	128	1280000	1024000	338.46	256.25	0.00	96790	24278	7961	50	10368
8	128	1280000	1024000	338.49	257.81	0.00	96801	24281	7960	50	10496
8	128	1280000	1024000	338.59	260.53	0.00	96814	24308	7955	50	10624
8	128	1280000	1024000	338.42	260.44	0.00	96839	24286	7933	50	10752
8	128	1280000	1024000	338.53	263.00	0.00	96841	24316	7931	50	10880
8	128	1280000	1024000	338.50	264.47	0.00	96867	24303	7926	50	11008
8	128	1280000	1024000	338.57	266.76	0.00	96871	24304	7935	50	11136
8	128	1280000	1024000	338.70	268.56	0.00	96873	24297	7961	50	11264
8	128	1280000	1024000	338.74	271.75	0.00	96879	24337	7939	50	11392
8	128	1280000	1024000	338.69	270.25	0.00	96889	24318	7940	50	11520
8	128	1280000	1024000	338.74	273.95	0.00	96924	24303	7947	50	11648
8	128	1280000	1024000	338.77	273.47	0.00	96888	24334	7943	50	11776
8	128	1280000	1024000	338.91	277.38	0.00	96914	24322	7965	50	11903
8	128	1280000	1024000	338.95	278.19	0.00	96915	24323	7971	50	12031
8	128	1280000	1024000	338.82	277.92	0.00	96938	24318	7945	50	12159
8	128	1280000	1024000	338.95	282.62	0.00	96951	24333	7953	50	12287
8	128	1280000	1024000	338.95	283.25	0.00	96959	24342	7944	50	12415
8	128	1280000	1024000	339.05	286.77	0.00	96967	24367	7941	50	12543
8	128	1280000	1024000	339.00	286.32	0.00	96977	24337	7950	50	12671
8	128	1280000	1024000	339.07	287.33	0.00	96971	24343	7959	50	12799
8	128	1280000	1024000	339.15	293.57	0.00	97050	24318	7963	50	12927
8	128	1280000	1024000	339.08	288.99	0.00	96991	24347	7952	50	13055
8	128	1280000	1024000	339.24	294.62	0.00	97010	24370	7957	50	13183
8	128	1280000	1024000	339.18	296.09	0.00	97043	24368	7937	50	13311
8	128	1280000	1024000	339.21	294.25	0.00	97009	24365	7955	50	13439
8	128	1280000	1024000	339.29	296.92	0.00	97050	24312	7990	50	13567
8	128	1280000	1024000	339.26	299.23	0.00	97066	24354	7952	50	13695
8	128	1280000	1024000	339.40	302.14	0.00	97059	24359	7975	50	13823
8	128	1280000	1024000	339.32	302.32	0.00	97075	24376	7944	50	13951
8	128	1280000	1024000	339.25	300.94	0.00	97092	24334	7955	50	14079
8	128	1280000	1024000	339.50	306.35	0.00	97069	24383	7971	50	14207
8	128	1280000	1024000	339.39	304.54	0.00	97079	24387	7948	50	14335
8	128	1280000	1024000	339.53	310.40	0.00	97106	24379	7967	50	14463
8	128	1280000	1024000	339.58	311.93	0.00	97133	24362	7977	50	14591
8	128	1280000	1024000	339.53	309.81	0.00	97099	24389	7962	50	14719
8	128	1280000	1024000	339.62	311.82	0.00	97107	24385	7977	50	14847
8	128	1280000	1024000	339.71	318.29	0.00	97165	24392	7969	50	14975
8	128	1280000	1024000	339.56	316.20	0.00	97169	24375	7954	50	15103
8	128	1280000	1024000	339.68	320.13	0.00	97193	24390	7955	50	15231
8	128	1280000	1024000	339.76	320.79	0.00	97176	24392	7974	50	15359
8	128	1280000	1024000	339.75	320.90	0.00	97188	24380	7975	50	15487
8	128	1280000	1024000	339.80	322.96	0.00	97181	24395	7977	50	15615
8	128	1280000	1024000	339.78	323.01	0.00	97192	24401	7966	50	15743
8	128	1280000	1024000	339.87	327.17	0.00	97215	24408	7968	50	15871
8	128	1280000	1024000	339.94	328.85	0.00	97224	24395	7986	50	15999
8	128	1280000	1024000	339.87	330.43	0.00	97255	24397	7962	50	16127
8	128	1280000	1024000	339.98	331.90	0.00	97245	24390	7989	50	16255
8	128	1280000	1024000	340.07	334.32	0.00	97260	24398	7993	50	16383
8	128	1280000	1024000	340.06	335.85	0.00	97268	24403	7985	50	16511
8	128	1280000	1024000	340.11	339.01	0.00	97299	24391	7991	50	16639
8	128	1280000	1024000	340.11	338.06	0.00	97281	24410	7985	50	16767
8	128	1280000	1024000	340.09	339.12	0.00	97296	24390	7989	50	16895
8	128	1280000	1024000	340.11	338.89	0.00	97276	24435	7970	50	17023
8	128	1280000	1024000	340.21	343.98	0.00	97308	24432	7978	50	17151
8	128	1280000	1024000	340.14	340.89	0.00	97318	24381	7996	50	17279
8	128	1280000	1024000	340.28	345.34	0.00	97312	24424	7993	50	17407
8	128	1280000	1024000	340.29	349.11	0.00	97346	24441	7973	50	17535
8	128	1280000	1024000	340.33	351.05	0.00	97351	24435	7981	50	17663
8	128	1280000	1024000	340.38	352.41	0.00	97363	24433	7987	50	17791
8	128	1280000	1024000	340.48	353.76	0.00	97366	24428	8006	50	17919
8	128	1280000	1024000	340.45	355.77	0.00	97391	24419	7998	50	18047
8	128	1280000	1024000	340.45	353.83	0.00	97355	24455	7987	50	18175
8	128	1280000	1024000	340.56	358.43	0.00	97363	24474	7989	50	18303
8	128	1280000	1024000	340.51	359.57	0.00	97391	24458	7983	50	18431
8	128	1280000	1024000	340.53	358.75	0.00	97385	24455	7990	50	18559
8	128	1280000	1024000	340.50	363.04	0.00	97447	24459	7961	50	18687
8	128	1280000	1024000	340.59	365.80	0.00	97469	24433	7987	50	18815
8	128	1280000	1024000	340.79	367.23	0.00	97410	24460	8022	50	18943
8	128	1280000	1024000	340.71	367.20	0.00	97453	24448	8002	50	19071
8	128	1280000	1024000	340.74	371.73	0.00	97493	24447	7995	50	19199
8	128	1280000	1024000	340.74	372.08	0.00	97471	24497	7969	50	19327
8	128	1280000	1024000	340.82	371.28	0.00	97463	24479	7997	50	19455
8	128	1280000	1024000	340.84	373.67	0.00	97494	24453	8007	50	19583
8	128	1280000	1024000	340.89	376.10	0.00	97505	24466	8003	50	19711
8	128	1280000	1024000	340.94	378.02	0.00	97506	24468	8009	50	19839
8	128	1280000	1024000	340.90	379.95	0.00	97544	24456	7998	50	19967
8	128	1280000	1024000	341.08	381.38	0.00	97498	24492	8020	50	20095
8	128	1280000	1024000	341.01	382.63	0.00	97545	24490	7993	50	20223
8	128	1280000	1024000	340.99	384.32	0.00	97563	24473	7995	50	20351
8	128	1280000	1024000	341.10	385.73	0.00	97547	24492	8006	50	20479
8	128	1280000	1024000	341.06	387.60	0.00	97556	24518	7979	50	20607
8	128	1280000	1024000	341.20	389.41	0.00	97584	24470	8025	50	20735
8	128	1280000	1024000	341.18	390.72	0.00	97582	24500	8002	50	20863
8	128	1280000	1024000	341.18	391.91	0.00	97603	24477	8011	50	20991
8	128	1280000	1024000	341.27	393.79	0.00	97598	24474	8030	50	21119
8	128	1280000	1024000	341.27	395.23	0.00	97602	24502	8009	50	21247
8	128	1280000	1024000	341.28	396.20	0.00	97615	24502	8007	50	21375
8	128	1280000	1024000	341.41	399.30	0.00	97614	24524	8014	50	21503
8	128	1280000	1024000	341.46	401.78	0.00	97626	24547	8004	50	21631
8	128	1280000	1024000	341.40	404.87	0.00	97688	24519	7991	50	21759
8	128	1280000	1024000	341.37	404.09	0.00	97689	24502	7998	50	21887
8	128	1280000	1024000	341.53	406.25	0.00	97673	24493	8035	50	22015
8	128	1280000	1024000	341.58	407.81	0.00	97661	24555	8007	50	22143
8	128	1280000	1024000	341.59	409.94	0.00	97679	24540	8012	50	22271
8	128	1280000	1024000	341.57	411.67	0.00	97707	24533	8004	50	22399
8	128	1280000	1024000	341.70	412.06	0.00	97697	24526	8034	50	22527
8	128	1280000	1024000	341.65	413.46	0.00	97739	24500	8029	50	22655
8	128	1280000	1024000	341.69	414.38	0.00	97712	24541	8017	50	22783
8	128	1280000	1024000	341.81	417.22	0.00	97720	24524	8046	50	22911
8	128	1280000	1024000	341.70	416.65	0.00	97738	24515	8027	50	23039
8	128	1280000	1024000	341.76	418.26	0.00	97755	24520	8028	50	23167
8	128	1280000	1024000	341.75	420.06	0.00	97772	24524	8019	50	23295
8	128	1280000	1024000	341.88	424.33	0.00	97763	24594	7996	50	23423
8	128	1280000	1024000	341.79	425.12	0.00	97805	24559	7991	50	23551
8	128	1280000	1024000	341.94	430.09	0.00	97824	24544	8019	50	23679
8	128	1280000	1024000	341.94	429.67	0.00	97824	24549	8016	50	23807
8	128	1280000	1024000	342.01	431.34	0.00	97813	24572	8016	50	23935
8	128	1280000	1024000	342.18	432.48	0.00	97812	24535	8070	50	24063
8	128	1280000	1024000	341.99	431.04	0.00	97832	24540	8027	50	24191
8	128	1280000	1024000	342.09	435.08	0.00	97854	24533	8042	50	24319
8	128	1280000	1024000	342.20	437.41	0.00	97837	24559	8049	50	24447
8	128	1280000	1024000	342.12	438.20	0.00	97884	24544	8029	50	24575
8	128	1280000	1024000	342.31	442.89	0.00	97870	24589	8035	50	24703
8	128	1280000	1024000	342.34	441.92	0.00	97860	24566	8060	50	24831
8	128	1280000	1024000	342.12	442.06	0.00	97901	24569	8007	50	24959
8	128	1280000	1024000	342.26	443.22	0.00	97883	24596	8019	50	25087
8	128	1280000	1024000	342.44	447.79	0.00	97900	24568	8062	50	25215
8	128	1280000	1024000	342.37	445.77	0.00	97887	24581	8046	50	25343
8	128	1280000	1024000	342.33	449.22	0.00	97925	24585	8024	50	25471
8	128	1280000	1024000	342.41	450.54	0.00	97935	24580	8037	50	25599
8	128	1280000	1024000	342.45	455.30	0.00	97997	24569	8030	50	25727
8	128	1280000	1024000	342.44	453.21	0.00	97960	24572	8039	50	25855
8	128	1280000	1024000	342.55	456.75	0.00	97970	24569	8056	50	25983
8	128	1280000	1024000	342.55	456.30	0.00	97965	24584	8047	50	26111
8	128	1280000	1024000	342.55	459.46	0.00	97995	24594	8031	50	26239
8	128	1280000	1024000	342.62	460.11	0.00	97989	24594	8045	50	26367
8	128	1280000	1024000	342.70	465.48	0.00	98042	24589	8044	50	26495
8	128	1280000	1024000	342.62	465.13	0.00	98047	24592	8027	50	26623
8	128	1280000	1024000	342.77	467.37	0.00	98041	24582	8060	50	26751
8	128	1280000	1024000	342.85	468.00	0.00	98012	24620	8057	50	26879
8	128	1280000	1024000	342.82	470.83	0.00	98061	24617	8038	50	27007
8	128	1280000	1024000	342.85	471.96	0.00	98048	24636	8035	50	27135
8	128	1280000	1024000	342.86	472.10	0.00	98052	24637	8035	50	27263
8	128	1280000	1024000	342.96	476.01	0.00	98066	24641	8044	50	27391
8	128	1280000	1024000	342.88	476.23	0.00	98112	24593	8047	50	27519
8	128	1280000	1024000	342.93	477.91	0.00	98093	24631	8037	50	27647
8	128	1280000	1024000	343.00	479.82	0.00	98100	24648	8035	50	27775
8	128	1280000	1024000	343.15	485.41	0.00	98116	24660	8046	50	27903
8	128	1280000	1024000	343.07	483.42	0.00	98131	24613	8060	50	28031
8	128	1280000	1024000	343.12	482.79	0.00	98104	24654	8050	50	28159
8	128	1280000	1024000	343.17	485.39	0.00	98128	24627	8067	50	28287
8	128	1280000	1024000	343.21	487.64	0.00	98128	24661	8052	50	28415
8	128	1280000	1024000	343.20	489.77	0.00	98161	24656	8042	50	28543
8	128	1280000	1024000	343.21	490.00	0.00	98167	24639	8053	50	28671
8	128	1280000	1024000	343.26	491.90	0.00	98183	24629	8063	50	28799
8	128	1280000	1024000	343.42	493.58	0.00	98140	24677	8072	50	28927
8	128	1280000	1024000	343.32	495.62	0.00	98219	24631	8060	50	29055
8	128	1280000	1024000	343.43	496.56	0.00	98197	24631	8085	50	29183
8	128	1280000	1024000	343.42	497.67	0.00	98210	24647	8069	50	29311
8	128	1280000	1024000	343.45	501.07	0.00	98235	24644	8067	50	29439
8	128	1280000	1024000	343.56	503.25	0.00	98244	24631	8091	50	29567
8	128	1280000	1024000	343.55	502.73	0.00	98235	24645	8083	50	29695
8	128	1280000	1024000	343.47	506.05	0.00	98276	24682	8032	50	29823
8	128	1280000	1024000	343.56	506.42	0.00	98271	24669	8057	50	29951
8	128	1280000	1024000	343.58	508.64	0.00	98279	24682	8049	50	30079
8	128	1280000	1024000	343.54	510.36	0.00	98311	24683	8031	50	30207
8	128	1280000	1024000	343.57	512.17	0.00	98298	24706	8025	50	30335
8	128	1280000	1024000	343.75	513.78	0.00	98293	24688	8069	50	30463
8	128	1280000	1024000	343.74	514.54	0.00	98286	24693	8066	50	30591
8	128	1280000	1024000	343.76	518.52	0.00	98334	24717	8037	50	30719
8   128 1280000 1024000 345.78  615.47  0.00    98873   24852   8105    50  38400
8   128 1280000 1024000 349.18  778.51  0.00    99844   25054   8212    50  51200
8   128 1280000 1024000 352.52  942.06  0.00    100808  25287   8292    50  64000
8   128 1280000 1024000 355.94  1107.45 0.00    101762  25562   8362    50  76800
8   128 1280000 1024000 359.26  1270.37 0.00    102719  25793   8441    50  89600
8   128 1280000 1024000 362.76  1432.19 0.00    103658  25957   8603    50  102400
8   128 1280000 1024000 366.13  1598.54 0.00    104636  26223   8661    50  115200
8   128 1280000 1024000 369.47  1760.96 0.00    105598  26436   8755    50  127999
8   128 1280000 1024000 372.93  1926.91 0.00    106565  26673   8852    50  140799
8   128 1280000 1024000 376.32  2090.20 0.00    107515  26897   8951    50  153599
8   128 1280000 1024000 379.66  2253.24 0.00    108477  27120   9038    50  166399
8   128 1280000 1024000 382.99  2417.20 0.00    109432  27393   9092    50  179199
8   128 1280000 1024000 386.32  2581.77 0.00    110396  27650   9154    50  192000
8   128 1280000 1024000 389.77  2746.24 0.00    111365  27855   9270    50  204800
8   128 1280000 1024000 392.97  2908.09 0.00    112328  28088   9327    50  217600
8   128 1280000 1024000 396.43  3072.75 0.00    113272  28335   9425    50  230400
8   128 1280000 1024000 399.69  3234.27 0.00    114234  28597   9472    50  243200
8   128 1280000 1024000 403.02  3395.29 0.00    115207  28802   9566    50  256000
8   128 1280000 1024000 406.49  3563.86 0.00    116151  29067   9653    50  268800
8   128 1280000 1024000 409.93  3730.19 0.00    117139  29296   9744    50  281600
8   128 1280000 1024000 413.16  3889.89 0.00    118078  29535   9810    50  294400
8   128 1280000 1024000 416.49  4053.21 0.00    119054  29743   9901    50  307200
8   128 1280000 1024000 420.00  4220.68 0.00    120000  30000   10000   50  320000
8   128 1280000 1024000 423.26  4382.24 0.00    120952  30247   10061   50  332800
8   128 1280000 1024000 426.78  4549.50 0.00    121898  30533   10142   50  345600
8   128 1280000 1024000 429.96  4712.64 0.00    122890  30772   10182   50  358400
8   128 1280000 1024000 436.67  5038.12 0.00    124801  31226   10360   50  384000
8   128 1280000 1024000 470.32  6676.60 0.00    134399  33639   11161   50  512000
8   128 1280000 1024000 504.00  8315.76 0.00    144000  36000   12000   50  640000
8   128 1280000 1024000 537.44  9951.18 0.00    153581  38448   12748   50  768000
8   128 1280000 1024000 570.84  11592.39    0.00    163230  40883   13474   50  896000
8   128 1280000 1024000 604.28  13226.78    0.00    172813  43315   14233   50  1023999
8   128 1280000 1024000 637.87  14868.33    0.00    182438  45749   15000   50  1152000
8   128 1280000 1024000 666.00  16384.00    0.00    192000  48000   15000   50  1279999
