### FTDCN Simulation Result (Iteration = 500000)
## Hop	= Average Hop
## Susp	= Average Suspect
## Failed	= Average Failed Trails Before a Success
## D	= [0, B)
### k	n	B	m	Hop	Susp	Failed	2	4	6	g/s	r
### Fix Gap(g) Mode
## g = 30
8	128	128	102	5.88	1.00	0.00	4905	19799	475296	30	0
8	128	128128	102502	5.67	1.00	0.00	11634	46268	438182	30	0
8	128	256128	204902	5.67	1.00	0.00	11974	47443	436640	30	0
8	128	384128	307302	5.68	1.00	0.00	11510	47100	437774	30	0
8	128	512128	409702	5.91	1.08	0.04	12189	48608	456219	30	0
8	128	640128	512102	8.02	1.84	0.42	18808	72575	613641	30	0
8	128	768128	614502	14.01	4.08	1.55	57493	200001	1014981	30	0
8	128	896128	716902	22.56	7.70	3.36	171706	539283	1463530	30	0
8	128	1024128	819302	31.67	12.11	5.54	402460	1070488	1791593	30	0
8	128	1152128	921702	40.01	16.60	7.78	743704	1668603	1974246	30	0
